Lab_2/simulation/qsim/full_adder.msim.vcd
$comment
	File created using the following command:
		vcd file full_adder.msim.vcd -direction
$end
$date
	Fri Sep 09 09:50:31 2022
$end
$version
	ModelSim Version 10.5b
$end
$timescale
	1ps
$end

$scope module full_adder4_vlg_vec_tst $end
$var reg 4 ! a [3:0] $end
$var reg 4 " b [3:0] $end
$var reg 1 # c1 $end
$var wire 1 $ c2 $end
$var wire 1 % s [3] $end
$var wire 1 & s [2] $end
$var wire 1 ' s [1] $end
$var wire 1 ( s [0] $end

$scope module i1 $end
$var wire 1 ) gnd $end
$var wire 1 * vcc $end
$var wire 1 + unknown $end
$var tri1 1 , devclrn $end
$var tri1 1 - devpor $end
$var tri1 1 . devoe $end
$var wire 1 / c2~output_o $end
$var wire 1 0 s[0]~output_o $end
$var wire 1 1 s[1]~output_o $end
$var wire 1 2 s[2]~output_o $end
$var wire 1 3 s[3]~output_o $end
$var wire 1 4 b[3]~input_o $end
$var wire 1 5 a[3]~input_o $end
$var wire 1 6 b[2]~input_o $end
$var wire 1 7 a[2]~input_o $end
$var wire 1 8 b[1]~input_o $end
$var wire 1 9 a[1]~input_o $end
$var wire 1 : b[0]~input_o $end
$var wire 1 ; a[0]~input_o $end
$var wire 1 < c1~input_o $end
$var wire 1 = b2v_inst|c_out~0_combout $end
$var wire 1 > b2v_inst1|c_out~0_combout $end
$var wire 1 ? b2v_inst2|c_out~0_combout $end
$var wire 1 @ b2v_inst3|c_out~0_combout $end
$var wire 1 A b2v_inst|sum~0_combout $end
$var wire 1 B b2v_inst1|sum~combout $end
$var wire 1 C b2v_inst2|sum~combout $end
$var wire 1 D b2v_inst3|sum~combout $end
$upscope $end
$upscope $end
$enddefinitions $end
#0
$dumpvars
b0 !
b0 "
0#
0$
0(
0'
0&
0%
0)
1*
x+
1,
1-
1.
0/
00
01
02
03
04
05
06
07
08
09
0:
0;
0<
0=
0>
0?
0@
0A
0B
0C
0D
$end
#80000
b100 !
1#
17
1<
1C
1A
10
12
1&
1(
#160000
b100 "
b110 "
b0 !
07
18
16
1B
11
1'
#220000
0#
b10 "
b0 "
0<
08
06
0A
0B
0C
02
01
00
0(
0'
0&
#280000
b1000 !
b1010 !
b1011 !
b1000 "
b1001 "
b1111 !
1:
14
1;
19
17
15
1=
1@
1B
1C
12
11
1/
1>
1$
1'
1&
0B
01
1?
0'
0C
02
0&
1D
13
1%
#300000
b1 "
b0 "
0:
04
0=
1A
0D
03
10
0>
1(
0%
1B
11
0?
1'
1C
12
1&
1D
0@
0/
13
1%
0$
#340000
b10 "
b1010 "
18
14
1>
0B
0D
1@
1/
03
01
1?
0'
0%
1$
0C
02
0&
1D
13
1%
#380000
b111 !
b101 !
b100 !
b0 !
0;
09
07
05
0>
0?
0A
1B
1C
0D
03
12
11
00
0(
1'
1&
0%
0C
1D
0@
0/
13
02
0&
1%
0$
#400000
b1000 "
b0 "
08
04
0B
0D
03
01
0'
0%
#460000
1#
b1000 !
b1001 !
b1101 !
1<
1;
17
15
1=
1C
1D
13
12
1&
1%
1B
11
1'
#480000
b1000 "
14
0D
1@
1/
03
0%
1$
#520000
b101 !
b100 !
b0 !
0;
07
05
0=
1A
0C
1D
0@
0/
13
02
10
1(
0&
1%
0$
0B
01
0'
#540000
0#
0<
0A
00
0(
#560000
b0 "
04
0D
03
0%
#580000
b1 "
b1001 "
1:
14
1A
1D
13
10
1(
1%
#590000
b10 !
b1010 !
19
15
1B
0D
1@
1/
03
11
1'
0%
1$
#630000
b1000 "
b0 "
0:
04
0A
1D
0@
0/
13
00
0(
1%
0$
#640000
b1000 !
b0 !
09
05
0B
0D
03
01
0'
0%
